<svg xmlns="http://www.w3.org/2000/svg" width="32" height="32" viewBox="0 0 32 32">
  <g id="Reddit" transform="translate(-4839.5 -16781)">
    <circle id="Ellipse_30" data-name="Ellipse 30" cx="16" cy="16" r="16" transform="translate(4839.5 16781)" fill="#fff"/>
    <g id="_x33_2.Reddit" transform="translate(4838.493 16775.912)">
      <path id="Icon_69_" d="M24,20.7a1.534,1.534,0,0,0-2.589-1.067,7.447,7.447,0,0,0-4.059-1.295l.682-3.272,2.257.455a1.047,1.047,0,1,0,.927-1.155,1.029,1.029,0,0,0-.787.507l-2.572-.507a.322.322,0,0,0-.385.245l-.77,3.657A7.52,7.52,0,0,0,12.6,19.56,1.535,1.535,0,0,0,10.5,21.8a1.758,1.758,0,0,0,.42.28,1.976,1.976,0,0,0,0,.455c0,2.362,2.747,4.286,6.141,4.286S23.2,24.914,23.2,22.534a1.976,1.976,0,0,0,0-.455A1.5,1.5,0,0,0,24,20.7Zm-10.55,1.067a1.05,1.05,0,1,1,1.05,1.05A1.053,1.053,0,0,1,13.454,21.765Zm6.123,2.9a3.969,3.969,0,0,1-2.589.8,4.037,4.037,0,0,1-2.589-.8.281.281,0,0,1,.035-.4.29.29,0,0,1,.367,0,3.481,3.481,0,0,0,2.187.665,3.442,3.442,0,0,0,2.2-.647.3.3,0,0,1,.42.42v-.035Zm-.175-1.8a1.05,1.05,0,1,1,1.05-1.05A1.042,1.042,0,0,1,19.437,22.9h-.052Z" transform="translate(0 0)" fill="#568dac"/>
    </g>
  </g>
</svg>
