{
    "blender_config": "2d_viz.py",
    "blender_file": "assets/hotel_room_master_and_bed_view.blend",
    "blender_version": "2.9",
    "camera_ids": [
        "master_view",
        "bed_view"
    ],
    "design_ext": "jpg",
    "design_ids": [
        [
            "18",
            "MATT",
            1
        ],
        [
            "19",
            "MATT",
            1
        ],
        [
            "20",
            "MATT",
            1
        ],
        [
            "21",
            "MATT",
            1
        ],
        [
            "25",
            "MATT",
            1
        ],
        [
            "15",
            "BRUSH",
            1
        ],
        [
            "154",
            "MATT",
            1
        ],
        [
            "155",
            "MATT",
            1
        ],
        [
            "16",
            "BRUSH",
            1
        ],
        [
            "161",
            "MATT",
            1
        ],
        [
            "163",
            "MATT",
            1
        ],
        [
            "164",
            "MATT",
            1
        ],
        [
            "168",
            "MATT",
            1
        ],
        [
            "17",
            "SATIN",
            1
        ],
        [
            "170",
            "MATT",
            1
        ],
        [
            "171",
            "MATT",
            1
        ],
        [
            "185",
            "MATT",
            1
        ],
        [
            "191",
            "MATT",
            1
        ],
        [
            "192",
            "MATT",
            1
        ],
        [
            "194",
            "MATT",
            1
        ],
        [
            "195",
            "MATT",
            1
        ],
        [
            "197",
            "MATT",
            1
        ],
        [
            "204",
            "MATT",
            1
        ],
        [
            "208",
            "MATT",
            1
        ],
        [
            "224",
            "MATT",
            1
        ],
        [
            "227",
            "MATT",
            1
        ],
        [
            "23",
            "BRUSH",
            1
        ],
        [
            "248",
            "MATT",
            1
        ],
        [
            "255",
            "MATT",
            1
        ],
        [
            "260",
            "MATT",
            1
        ],
        [
            "262",
            "MATT",
            1
        ],
        [
            "263",
            "MATT",
            1
        ],
        [
            "288",
            "MATT",
            1
        ],
        [
            "289",
            "MATT",
            1
        ],
        [
            "290",
            "MATT",
            1
        ],
        [
            "293",
            "MATT",
            1
        ],
        [
            "294",
            "MATT",
            1
        ],
        [
            "3",
            "MIRROR",
            1
        ],
        [
            "462",
            "MATT",
            1
        ],
        [
            "532",
            "MATT",
            1
        ],
        [
            "534",
            "MATT",
            1
        ],
        [
            "538",
            "MATT",
            1
        ],
        [
            "6",
            "MIRROR",
            1
        ],
        [
            "737",
            "MATT",
            1
        ],
        [
            "81",
            "SATIN",
            1
        ],
        [
            "82",
            "SATIN",
            1
        ],
        [
            "838",
            "MATT",
            1
        ],
        [
            "839",
            "MATT",
            1
        ],
        [
            "84",
            "SATIN",
            1
        ],
        [
            "903",
            "MATT",
            1
        ],
        [
            "905",
            "MATT",
            1
        ],
        [
            "906",
            "MATT",
            1
        ],
        [
            "913",
            "MATT",
            1
        ],
        [
            "915",
            "MATT",
            1
        ],
        [
            "916",
            "MATT",
            1
        ],
        [
            "917",
            "MATT",
            1
        ],
        [
            "927",
            "MATT",
            1
        ],
        [
            "935",
            "MATT",
            1
        ],
        [
            "936",
            "MATT",
            1
        ],
        [
            "943",
            "MATT",
            1
        ],
        [
            "944",
            "MATT",
            1
        ],
        [
            "951",
            "MATT",
            1
        ],
        [
            "957",
            "MATT",
            1
        ],
        [
            "959",
            "MATT",
            1
        ],
        [
            "961",
            "MATT",
            1
        ],
        [
            "962",
            "MATT",
            1
        ],
        [
            "964",
            "MATT",
            1
        ],
        [
            "966",
            "MATT",
            1
        ],
        [
            "972",
            "MATT",
            1
        ],
        [
            "973",
            "MATT",
            1
        ],
        [
            "976",
            "MATT",
            1
        ],
        [
            "977",
            "MATT",
            1
        ],
        [
            "978",
            "MATT",
            1
        ],
        [
            "981",
            "MATT",
            1
        ],
        [
            "984",
            "MATT",
            1
        ],
        [
            "986",
            "MATT",
            1
        ],
        [
            "989",
            "MATT",
            1
        ],
        [
            "991",
            "MATT",
            1
        ],
        [
            "993",
            "MATT",
            1
        ],
        [
            "994",
            "MATT",
            1
        ],
        [
            "995",
            "MATT",
            1
        ],
        [
            "997",
            "MATT",
            1
        ],
        [
            "998",
            "MATT",
            1
        ],
        [
            "999",
            "MATT",
            1
        ],
        [
            "Z102",
            "AFP",
            1
        ],
        [
            "Z104",
            "AFP",
            1
        ],
        [
            "Z105",
            "AFP",
            1
        ],
        [
            "Z106",
            "AFP",
            1
        ],
        [
            "Z108",
            "AFP",
            1
        ],
        [
            "Z109",
            "AFP",
            1
        ],
        [
            "1000",
            "MATT",
            1
        ],
        [
            "1001",
            "MATT",
            1
        ],
        [
            "1002",
            "MATT",
            1
        ],
        [
            "1006",
            "MATT",
            1
        ],
        [
            "1011",
            "MATT",
            1
        ],
        [
            "1012",
            "MATT",
            1
        ],
        [
            "1013",
            "MATT",
            1
        ],
        [
            "1014",
            "MATT",
            1
        ],
        [
            "101C",
            "MATT",
            1
        ],
        [
            "1025",
            "MATT",
            1
        ],
        [
            "1026",
            "MATT",
            1
        ],
        [
            "1028",
            "MATT",
            1
        ],
        [
            "1029",
            "MATT",
            1
        ],
        [
            "1030",
            "MATT",
            1
        ],
        [
            "1032",
            "MATT",
            1
        ],
        [
            "1035",
            "MATT",
            1
        ],
        [
            "1039",
            "MATT",
            1
        ],
        [
            "1040",
            "MATT",
            1
        ],
        [
            "1042",
            "MATT",
            1
        ],
        [
            "1043",
            "MATT",
            1
        ],
        [
            "1044",
            "MATT",
            1
        ],
        [
            "1045",
            "MATT",
            1
        ],
        [
            "1049",
            "MATT",
            1
        ],
        [
            "1051",
            "MATT",
            1
        ],
        [
            "1053",
            "MATT",
            1
        ],
        [
            "1054",
            "MATT",
            1
        ],
        [
            "1055",
            "MATT",
            1
        ],
        [
            "1056",
            "MATT",
            1
        ],
        [
            "1058",
            "MATT",
            1
        ],
        [
            "1061",
            "MATT",
            1
        ],
        [
            "1067",
            "MATT",
            1
        ],
        [
            "1068",
            "MATT",
            1
        ],
        [
            "1071",
            "MATT",
            1
        ],
        [
            "1072",
            "MATT",
            1
        ],
        [
            "1075",
            "MATT",
            1
        ],
        [
            "1078",
            "MATT",
            1
        ],
        [
            "1082",
            "MATT",
            1
        ],
        [
            "1086",
            "MATT",
            1
        ],
        [
            "1087",
            "MATT",
            1
        ],
        [
            "1088",
            "MATT",
            1
        ],
        [
            "1091",
            "MATT",
            1
        ],
        [
            "1092",
            "MATT",
            1
        ],
        [
            "1093",
            "MATT",
            1
        ],
        [
            "1094",
            "MATT",
            1
        ],
        [
            "1095",
            "MATT",
            1
        ],
        [
            "1096",
            "MATT",
            1
        ],
        [
            "1097",
            "MATT",
            1
        ],
        [
            "1098",
            "MATT",
            1
        ],
        [
            "1099",
            "MATT",
            1
        ],
        [
            "11",
            "MIRROR",
            1
        ],
        [
            "1100",
            "MATT",
            1
        ],
        [
            "1101",
            "MATT",
            1
        ],
        [
            "1102",
            "MATT",
            1
        ],
        [
            "1103",
            "MATT",
            1
        ],
        [
            "1104",
            "MATT",
            1
        ],
        [
            "1105",
            "MATT",
            1
        ],
        [
            "1106",
            "MATT",
            1
        ],
        [
            "1107",
            "MATT",
            1
        ],
        [
            "1108",
            "MATT",
            1
        ],
        [
            "1109",
            "MATT",
            1
        ],
        [
            "1110",
            "MATT",
            1
        ],
        [
            "1111",
            "MATT",
            1
        ],
        [
            "1112",
            "MATT",
            1
        ],
        [
            "1113",
            "MATT",
            1
        ],
        [
            "1114",
            "MATT",
            1
        ],
        [
            "1116",
            "MATT",
            1
        ],
        [
            "1117",
            "MATT",
            1
        ],
        [
            "1118",
            "MATT",
            1
        ],
        [
            "1121",
            "MATT",
            1
        ],
        [
            "1122",
            "MATT",
            1
        ],
        [
            "1123",
            "MATT",
            1
        ],
        [
            "1124",
            "MATT",
            1
        ],
        [
            "1125",
            "MATT",
            1
        ],
        [
            "1126",
            "MATT",
            1
        ],
        [
            "1127",
            "MATT",
            1
        ],
        [
            "1129",
            "MATT",
            1
        ],
        [
            "1131",
            "MATT",
            1
        ],
        [
            "1132",
            "MATT",
            1
        ],
        [
            "1133",
            "MATT",
            1
        ],
        [
            "1134",
            "MATT",
            1
        ],
        [
            "1135",
            "MATT",
            1
        ],
        [
            "1136",
            "MATT",
            1
        ],
        [
            "1139",
            "MATT",
            1
        ],
        [
            "1140",
            "MATT",
            1
        ],
        [
            "1141",
            "MATT",
            1
        ],
        [
            "1142",
            "MATT",
            1
        ],
        [
            "1143",
            "MATT",
            1
        ],
        [
            "1144",
            "MATT",
            1
        ],
        [
            "1146",
            "MATT",
            1
        ],
        [
            "1147",
            "MATT",
            1
        ],
        [
            "1148",
            "MATT",
            1
        ],
        [
            "1149",
            "MATT",
            1
        ],
        [
            "1150",
            "MATT",
            1
        ],
        [
            "1151",
            "MATT",
            1
        ],
        [
            "1152",
            "MATT",
            1
        ],
        [
            "1153",
            "MATT",
            1
        ],
        [
            "1154",
            "MATT",
            1
        ],
        [
            "1155",
            "MATT",
            1
        ],
        [
            "1156",
            "MATT",
            1
        ],
        [
            "1157",
            "MATT",
            1
        ],
        [
            "1159",
            "MATT",
            1
        ],
        [
            "1160",
            "MATT",
            1
        ],
        [
            "1161",
            "MATT",
            1
        ],
        [
            "1162",
            "MATT",
            1
        ],
        [
            "1163",
            "MATT",
            1
        ],
        [
            "1164",
            "MATT",
            1
        ],
        [
            "1165",
            "MATT",
            1
        ],
        [
            "1166",
            "MATT",
            1
        ],
        [
            "1167",
            "MATT",
            1
        ],
        [
            "1169",
            "MATT",
            1
        ],
        [
            "1170",
            "MATT",
            1
        ],
        [
            "1176",
            "MATT",
            1
        ],
        [
            "1177",
            "MATT",
            1
        ],
        [
            "1178",
            "MATT",
            1
        ],
        [
            "1179",
            "MATT",
            1
        ],
        [
            "1180",
            "MATT",
            1
        ],
        [
            "1181",
            "MATT",
            1
        ],
        [
            "1182",
            "MATT",
            1
        ],
        [
            "1183",
            "MATT",
            1
        ],
        [
            "1184",
            "MATT",
            1
        ],
        [
            "1185",
            "MATT",
            1
        ],
        [
            "1186",
            "MATT",
            1
        ],
        [
            "1187",
            "MATT",
            1
        ],
        [
            "1B",
            "MIRROR",
            1
        ],
        [
            "1BR",
            "BRUSH",
            1
        ],
        [
            "22",
            "MIRROR",
            1
        ],
        [
            "2B",
            "MIRROR",
            1
        ],
        [
            "2BR",
            "BRUSH",
            1
        ],
        [
            "5BR",
            "BRUSH",
            1
        ],
        [
            "6BR",
            "BRUSH",
            1
        ],
        [
            "806",
            "SATIN",
            1
        ],
        [
            "971",
            "GLOSS",
            1
        ],
        [
            "18BR",
            "BRUSH",
            1
        ],
        [
            "817",
            "COPPER",
            1
        ],
        [
            "818",
            "COPPER",
            1
        ],
        [
            "819",
            "COPPER",
            1
        ],
        [
            "822",
            "COPPER",
            1
        ],
        [
            "837",
            "MIRROR",
            1
        ],
        [
            "849",
            "COPPER",
            1
        ],
        [
            "853",
            "COPPER",
            1
        ],
        [
            "856",
            "COPPER",
            1
        ],
        [
            "857",
            "COPPER",
            1
        ],
        [
            "866",
            "COPPER",
            1
        ],
        [
            "OP8003",
            "HDF",
            1
        ],
        [
            "OP8009",
            "HDF",
            1
        ],
        [
            "OP8012",
            "HDF",
            1
        ],
        [
            "OP8014",
            "HDF",
            1
        ],
        [
            "OTM02",
            "MATT",
            1
        ],
        [
            "OTM03",
            "MATT",
            1
        ],
        [
            "OTM04",
            "MATT",
            1
        ],
        [
            "OTM05",
            "MATT",
            1
        ],
        [
            "OTM06",
            "MATT",
            1
        ],
        [
            "OTM07",
            "MATT",
            1
        ],
        [
            "OTM10",
            "MATT",
            1
        ],
        [
            "OTM11",
            "MATT",
            1
        ],
        [
            "OTM12",
            "MATT",
            1
        ],
        [
            "OTM13",
            "MATT",
            1
        ],
        [
            "OTM14",
            "MATT",
            1
        ],
        [
            "OTM15",
            "MATT",
            1
        ],
        [
            "OTM16",
            "MATT",
            1
        ],
        [
            "OTM17",
            "MATT",
            1
        ],
        [
            "OTM18",
            "MATT",
            1
        ],
        [
            "OTM19",
            "MATT",
            1
        ],
        [
            "OTM20",
            "MATT",
            1
        ],
        [
            "OTM21",
            "MATT",
            1
        ],
        [
            "OTM22",
            "MATT",
            1
        ],
        [
            "OTP21",
            "MATT",
            1
        ],
        [
            "OTP22",
            "MATT",
            1
        ],
        [
            "OTP23",
            "MATT",
            1
        ],
        [
            "OTP24",
            "MATT",
            1
        ],
        [
            "OTP25",
            "MATT",
            1
        ],
        [
            "OTP26",
            "MATT",
            1
        ],
        [
            "OTP27",
            "MATT",
            1
        ],
        [
            "OTP28",
            "MATT",
            1
        ],
        [
            "OTP29",
            "MATT",
            1
        ],
        [
            "OTP30",
            "MATT",
            1
        ],
        [
            "OTP31",
            "MATT",
            1
        ],
        [
            "OTP33",
            "MATT",
            1
        ],
        [
            "OTP34",
            "MATT",
            1
        ],
        [
            "OTP35",
            "MATT",
            1
        ],
        [
            "OTP36",
            "MATT",
            1
        ],
        [
            "OTP37",
            "MATT",
            1
        ],
        [
            "OTP38",
            "MATT",
            1
        ],
        [
            "OTP39",
            "MATT",
            1
        ],
        [
            "OTP40",
            "MATT",
            1
        ],
        [
            "OTP41",
            "MATT",
            1
        ],
        [
            "OTP42",
            "MATT",
            1
        ],
        [
            "OTP43",
            "MATT",
            1
        ],
        [
            "OTP44",
            "MATT",
            1
        ],
        [
            "OTP45",
            "MATT",
            1
        ],
        [
            "OTP46",
            "MATT",
            1
        ],
        [
            "OTP47",
            "MATT",
            1
        ],
        [
            "GL100",
            "GLOSS",
            1
        ],
        [
            "GL154",
            "GLOSS",
            1
        ],
        [
            "GL155",
            "GLOSS",
            1
        ],
        [
            "174",
            "TEXTURED",
            1
        ],
        [
            "175",
            "TEXTURED",
            1
        ],
        [
            "179",
            "TEXTURED",
            1
        ],
        [
            "189",
            "TEXTURED",
            1
        ],
        [
            "190",
            "TEXTURED",
            1
        ],
        [
            "193",
            "TEXTURED",
            1
        ],
        [
            "252",
            "METALLIC",
            1
        ],
        [
            "271",
            "METALLIC",
            1
        ],
        [
            "274",
            "TEXTURED",
            1
        ],
        [
            "517",
            "METALLIC",
            1
        ],
        [
            "576",
            "METALLIC",
            1
        ],
        [
            "578",
            "METALLIC",
            1
        ],
        [
            "727",
            "METALLIC",
            1
        ],
        [
            "728",
            "METALLIC",
            1
        ],
        [
            "731",
            "METALLIC",
            1
        ],
        [
            "732",
            "METALLIC",
            1
        ],
        [
            "740",
            "METALLIC",
            1
        ],
        [
            "911",
            "TEXTURED",
            1
        ],
        [
            "919",
            "TEXTURED",
            1
        ],
        [
            "920",
            "TEXTURED",
            1
        ],
        [
            "921",
            "TEXTURED",
            1
        ],
        [
            "968",
            "TEXTURED",
            1
        ],
        [
            "1016",
            "METALLIC",
            1
        ],
        [
            "1017",
            "METALLIC",
            1
        ],
        [
            "1018",
            "METALLIC",
            1
        ],
        [
            "1019",
            "METALLIC",
            1
        ],
        [
            "1020",
            "TEXTURED",
            1
        ],
        [
            "1021",
            "TEXTURED",
            1
        ],
        [
            "1022",
            "METALLIC",
            1
        ],
        [
            "1023",
            "METALLIC",
            1
        ],
        [
            "OP8013",
            "HDF/MAPLE",
            1
        ],
        [
            "OP8017",
            "HDF_BEECH",
            1
        ],
        [
            "OP8019",
            "HDF_MAPLE",
            1
        ],
        [
            "OP8020",
            "HDF_MAPLE",
            1
        ],
        [
            "OP8021",
            "HDF_MAPLE",
            1
        ],
        [
            "OP8022",
            "HDF_MAPLE",
            1
        ],
        [
            "OP8023",
            "HDF_MAPLE",
            1
        ],
        [
            "SMOKE MIRROR",
            "MIRROR",
            1
        ],
        [
            "OCTOWEAVE B1W",
            "CHERRY_MAPLE",
            1
        ],
        [
            "OCTOWEAVE A2W",
            "BEECH_CHERRY_MAPLE",
            1
        ]
    ],
    "design_path": "https://general-iamdave.s3.us-west-2.amazonaws.com/octopus/designimages",
    "file_extension": "png",
    "holed_out": "other_parts",
    "output_dir": "assets/octopus_products",
    "rendering_resolution": "1280x657",
    "room_id": "hotel_room",
    "rotate": true,
    "surface_ids": [
        "tv_cladding",
        "wardrobe",
        "cabinets",
        "wall_cladding",
        "other_parts"
    ]
}
