{
    "design_ids": [
        [
            "10002",
            "Suede",
            1
        ],
        [
            "10007",
            "Suede",
            1
        ],
        [
            "10009",
            "Suede",
            1
        ],
        [
            "10012",
            "Suede",
            1
        ],
        [
            "10013",
            "Suede",
            1
        ],
        [
            "10016",
            "Suede",
            1
        ],
        [
            "10019",
            "Gloss",
            1
        ],
        [
            "10019",
            "Suede",
            1
        ],
        [
            "10024",
            "Suede",
            1
        ],
        [
            "10031",
            "Suede",
            1
        ],
        [
            "10036",
            "Suede",
            1
        ],
        [
            "10039",
            "Suede",
            1
        ],
        [
            "10042",
            "Suede",
            1
        ],
        [
            "10077",
            "Suede",
            1
        ],
        [
            "10078",
            "Suede",
            1
        ],
        [
            "10079",
            "Suede",
            1
        ],
        [
            "10081",
            "Suede",
            1
        ],
        [
            "10085",
            "Suede",
            1
        ],
        [
            "10091",
            "Suede",
            1
        ],
        [
            "10095",
            "Suede",
            1
        ],
        [
            "10098",
            "Suede",
            1
        ],
        [
            "10099",
            "Suede",
            1
        ],
        [
            "10122",
            "Suede",
            1
        ],
        [
            "10145",
            "Suede",
            1
        ],
        [
            "10157",
            "Suede",
            1
        ],
        [
            "10159",
            "Suede",
            1
        ],
        [
            "10164",
            "Suede",
            1
        ],
        [
            "10168",
            "Gloss",
            1
        ],
        [
            "10168",
            "Suede",
            1
        ],
        [
            "10171",
            "Suede",
            1
        ],
        [
            "10172",
            "Suede",
            1
        ],
        [
            "10174",
            "Suede",
            1
        ],
        [
            "10175",
            "Suede",
            1
        ],
        [
            "10184",
            "Suede",
            1
        ],
        [
            "10185",
            "Suede",
            1
        ],
        [
            "10186",
            "Suede",
            1
        ],
        [
            "10188",
            "Suede",
            1
        ],
        [
            "10189",
            "Suede",
            1
        ],
        [
            "10193",
            "Suede",
            1
        ],
        [
            "10195",
            "Suede",
            1
        ],
        [
            "10196",
            "Suede",
            1
        ],
        [
            "10197",
            "Suede",
            1
        ],
        [
            "10241",
            "Suede",
            1
        ],
        [
            "10243",
            "Suede",
            1
        ],
        [
            "10291",
            "Suede",
            1
        ],
        [
            "10502",
            "Gloss",
            1
        ],
        [
            "10510",
            "Suede",
            1
        ],
        [
            "10511",
            "Suede",
            1
        ],
        [
            "10513",
            "Suede",
            1
        ],
        [
            "10514",
            "Suede",
            1
        ],
        [
            "10515",
            "Gloss",
            1
        ],
        [
            "10515",
            "Suede",
            1
        ],
        [
            "10516",
            "Suede",
            1
        ],
        [
            "10517",
            "Suede",
            1
        ],
        [
            "10521",
            "Suede",
            1
        ],
        [
            "10523",
            "Gloss",
            1
        ],
        [
            "10523",
            "Suede",
            1
        ],
        [
            "10526",
            "Suede",
            1
        ],
        [
            "10528",
            "Suede",
            1
        ],
        [
            "10544",
            "Suede",
            1
        ],
        [
            "10573",
            "Suede",
            1
        ],
        [
            "10591",
            "Suede",
            1
        ],
        [
            "10592",
            "Gloss",
            1
        ],
        [
            "10592",
            "Suede",
            1
        ],
        [
            "10593",
            "Suede",
            1
        ],
        [
            "10596",
            "Suede",
            1
        ],
        [
            "10597",
            "Suede",
            1
        ],
        [
            "10599",
            "Suede",
            1
        ],
        [
            "10609",
            "Suede",
            1
        ],
        [
            "10659",
            "Suede",
            1
        ],
        [
            "10679",
            "Suede",
            1
        ],
        [
            "10680",
            "Suede",
            1
        ],
        [
            "10699",
            "Suede",
            1
        ],
        [
            "10803",
            "Suede",
            1
        ],
        [
            "10838",
            "Suede",
            1
        ],
        [
            "10839",
            "Suede",
            1
        ],
        [
            "10841",
            "Suede",
            1
        ],
        [
            "10843",
            "Suede",
            1
        ],
        [
            "10844",
            "Suede",
            1
        ],
        [
            "10845",
            "Suede",
            1
        ],
        [
            "10848",
            "Suede",
            1
        ],
        [
            "10851",
            "Suede",
            1
        ],
        [
            "10852",
            "Suede",
            1
        ],
        [
            "10853",
            "Suede",
            1
        ],
        [
            "10854",
            "Suede",
            1
        ],
        [
            "10856",
            "Suede",
            1
        ],
        [
            "10858",
            "Suede",
            1
        ],
        [
            "10865",
            "Suede",
            1
        ],
        [
            "10866",
            "Suede",
            1
        ],
        [
            "10867",
            "Suede",
            1
        ],
        [
            "10870",
            "Suede",
            1
        ],
        [
            "10879",
            "Suede",
            1
        ],
        [
            "10880",
            "Suede",
            1
        ],
        [
            "10881",
            "Suede",
            1
        ],
        [
            "10882",
            "Suede",
            1
        ],
        [
            "10884",
            "Suede",
            1
        ],
        [
            "10894",
            "Suede",
            1
        ],
        [
            "11005",
            "Suede",
            1
        ],
        [
            "11192",
            "Suede",
            1
        ],
        [
            "11655",
            "Suede",
            1
        ],
        [
            "11656",
            "Suede",
            1
        ],
        [
            "11660",
            "Suede",
            1
        ],
        [
            "11682",
            "Suede",
            1
        ],
        [
            "14133",
            "Suede",
            1
        ],
        [
            "14134",
            "Suede",
            1
        ],
        [
            "14139",
            "Suede",
            1
        ],
        [
            "14140",
            "Suede",
            1
        ],
        [
            "14142",
            "Suede",
            1
        ],
        [
            "14143",
            "Suede",
            1
        ],
        [
            "14144",
            "Suede",
            1
        ],
        [
            "14145",
            "Suede",
            1
        ],
        [
            "14161",
            "Suede",
            1
        ],
        [
            "14177",
            "Gloss",
            1
        ],
        [
            "14177",
            "Suede",
            1
        ],
        [
            "14178",
            "Gloss",
            1
        ],
        [
            "14178",
            "Suede",
            1
        ],
        [
            "14180",
            "Suede",
            1
        ],
        [
            "14181",
            "Suede",
            1
        ],
        [
            "14183",
            "Suede",
            1
        ],
        [
            "14186",
            "Suede",
            1
        ],
        [
            "14187",
            "Gloss",
            1
        ],
        [
            "14187",
            "Suede",
            1
        ],
        [
            "14190",
            "Suede",
            1
        ],
        [
            "14191",
            "Suede",
            1
        ],
        [
            "14194",
            "Suede",
            1
        ],
        [
            "14406",
            "Gloss",
            1
        ],
        [
            "14420",
            "Suede",
            1
        ],
        [
            "14421",
            "Suede",
            1
        ],
        [
            "14477",
            "Gloss",
            1
        ],
        [
            "14478",
            "Gloss",
            1
        ],
        [
            "14530",
            "Gloss",
            1
        ],
        [
            "14530",
            "Suede",
            1
        ],
        [
            "14531",
            "Suede",
            1
        ],
        [
            "14532",
            "Suede",
            1
        ],
        [
            "14533",
            "Gloss",
            1
        ],
        [
            "14533",
            "Suede",
            1
        ],
        [
            "14538",
            "Suede",
            1
        ],
        [
            "14539",
            "Suede",
            1
        ],
        [
            "14540",
            "Suede",
            1
        ],
        [
            "14541",
            "Suede",
            1
        ],
        [
            "14542",
            "Suede",
            1
        ],
        [
            "14545",
            "Suede",
            1
        ],
        [
            "14546",
            "Suede",
            1
        ],
        [
            "14550",
            "Suede",
            1
        ],
        [
            "14551",
            "Suede",
            1
        ],
        [
            "14552",
            "Suede",
            1
        ],
        [
            "14553",
            "Suede",
            1
        ],
        [
            "14554",
            "Suede",
            1
        ],
        [
            "14583",
            "Suede",
            1
        ],
        [
            "14584",
            "Suede",
            1
        ],
        [
            "14585",
            "Suede",
            1
        ],
        [
            "14586",
            "Suede",
            1
        ],
        [
            "14587",
            "Suede",
            1
        ],
        [
            "14588",
            "Suede",
            1
        ],
        [
            "14589",
            "Suede",
            1
        ],
        [
            "14611",
            "Suede",
            1
        ],
        [
            "14613",
            "Gloss",
            1
        ],
        [
            "14613",
            "Suede",
            1
        ],
        [
            "14614",
            "Suede",
            1
        ],
        [
            "14616",
            "Suede",
            1
        ],
        [
            "14617",
            "Suede",
            1
        ],
        [
            "14618",
            "Suede",
            1
        ],
        [
            "14619",
            "Gloss",
            1
        ],
        [
            "14619",
            "Suede",
            1
        ],
        [
            "14620",
            "Suede",
            1
        ],
        [
            "14621",
            "Suede",
            1
        ],
        [
            "14624",
            "Suede",
            1
        ],
        [
            "14625",
            "Suede",
            1
        ],
        [
            "14626",
            "Suede",
            1
        ],
        [
            "14635",
            "Suede",
            1
        ],
        [
            "14636",
            "Suede",
            1
        ],
        [
            "14637",
            "Suede",
            1
        ],
        [
            "14638",
            "Suede",
            1
        ],
        [
            "14639",
            "Suede",
            1
        ],
        [
            "14641",
            "Gloss",
            1
        ],
        [
            "14641",
            "Suede",
            1
        ],
        [
            "14642",
            "Suede",
            1
        ],
        [
            "14643",
            "Suede",
            1
        ],
        [
            "14644",
            "Suede",
            1
        ],
        [
            "14646",
            "Suede",
            1
        ],
        [
            "14649",
            "Suede",
            1
        ],
        [
            "14650",
            "Suede",
            1
        ],
        [
            "14660",
            "Suede",
            1
        ],
        [
            "14661",
            "Gloss",
            1
        ],
        [
            "14661",
            "Suede",
            1
        ],
        [
            "14662",
            "Gloss",
            1
        ],
        [
            "14662",
            "Suede",
            1
        ],
        [
            "14664",
            "Suede",
            1
        ],
        [
            "14665",
            "Suede",
            1
        ],
        [
            "14666",
            "Suede",
            1
        ],
        [
            "14667",
            "Suede",
            1
        ],
        [
            "14668",
            "Suede",
            1
        ],
        [
            "14669",
            "Suede",
            1
        ],
        [
            "14670",
            "Gloss",
            1
        ],
        [
            "14670",
            "Suede",
            1
        ],
        [
            "14672",
            "Suede",
            1
        ],
        [
            "14673",
            "Suede",
            1
        ],
        [
            "14674",
            "Gloss",
            1
        ],
        [
            "14674",
            "Suede",
            1
        ],
        [
            "14675",
            "Gloss",
            1
        ],
        [
            "14675",
            "Suede",
            1
        ],
        [
            "14685",
            "Gloss",
            1
        ],
        [
            "14685",
            "Suede",
            1
        ],
        [
            "14686",
            "Suede",
            1
        ],
        [
            "14687",
            "Suede",
            1
        ],
        [
            "14689",
            "Suede",
            1
        ],
        [
            "14690",
            "Gloss",
            1
        ],
        [
            "14690",
            "Suede",
            1
        ],
        [
            "14693",
            "Suede",
            1
        ],
        [
            "14694",
            "Suede",
            1
        ],
        [
            "14698",
            "Gloss",
            1
        ],
        [
            "14698",
            "Suede",
            1
        ],
        [
            "14809",
            "Suede",
            1
        ],
        [
            "14810",
            "Suede",
            1
        ],
        [
            "14811",
            "Suede",
            1
        ],
        [
            "14920",
            "Gloss",
            1
        ],
        [
            "14921",
            "Gloss",
            1
        ],
        [
            "14924",
            "Gloss",
            1
        ],
        [
            "14929",
            "Gloss",
            1
        ],
        [
            "14929",
            "Suede",
            1
        ],
        [
            "14930",
            "Gloss",
            1
        ],
        [
            "14930",
            "Suede",
            1
        ],
        [
            "14932",
            "Gloss",
            1
        ],
        [
            "14932",
            "Suede",
            1
        ],
        [
            "14937",
            "Gloss",
            1
        ],
        [
            "14937",
            "Suede",
            1
        ],
        [
            "14938",
            "Gloss",
            1
        ],
        [
            "14938",
            "Suede",
            1
        ],
        [
            "14940",
            "Gloss",
            1
        ],
        [
            "14969",
            "Gloss",
            1
        ],
        [
            "21003",
            "Gloss",
            1
        ],
        [
            "21003",
            "Suede",
            1
        ],
        [
            "21004",
            "Gloss",
            1
        ],
        [
            "21004",
            "Suede",
            1
        ],
        [
            "21007",
            "Suede",
            1
        ],
        [
            "21009",
            "Suede",
            1
        ],
        [
            "21012",
            "Suede",
            1
        ],
        [
            "21013",
            "Suede",
            1
        ],
        [
            "21014",
            "Suede",
            1
        ],
        [
            "21017",
            "Suede",
            1
        ],
        [
            "21019",
            "Suede",
            1
        ],
        [
            "21022",
            "Gloss",
            1
        ],
        [
            "21022",
            "Suede",
            1
        ],
        [
            "21023",
            "Gloss",
            1
        ],
        [
            "21023",
            "Suede",
            1
        ],
        [
            "21024",
            "Gloss",
            1
        ],
        [
            "21024",
            "Suede",
            1
        ],
        [
            "21027",
            "Gloss",
            1
        ],
        [
            "21027",
            "Suede",
            1
        ],
        [
            "21028",
            "Suede",
            1
        ],
        [
            "21029",
            "Suede",
            1
        ],
        [
            "21032",
            "Suede",
            1
        ],
        [
            "21037",
            "Gloss",
            1
        ],
        [
            "21037",
            "Suede",
            1
        ],
        [
            "21038",
            "Gloss",
            1
        ],
        [
            "21038",
            "Suede",
            1
        ],
        [
            "21039",
            "Suede",
            1
        ],
        [
            "21042",
            "Suede",
            1
        ],
        [
            "21051",
            "Suede",
            1
        ],
        [
            "21054",
            "Suede",
            1
        ],
        [
            "21055",
            "Gloss",
            1
        ],
        [
            "21055",
            "Suede",
            1
        ],
        [
            "21057",
            "Gloss",
            1
        ],
        [
            "21057",
            "Suede",
            1
        ],
        [
            "21059",
            "Suede",
            1
        ],
        [
            "21061",
            "Suede",
            1
        ],
        [
            "21063",
            "Suede",
            1
        ],
        [
            "21065",
            "Gloss",
            1
        ],
        [
            "21065",
            "Suede",
            1
        ],
        [
            "21066",
            "Gloss",
            1
        ],
        [
            "21066",
            "Suede",
            1
        ],
        [
            "21067",
            "Suede",
            1
        ],
        [
            "21069",
            "Gloss",
            1
        ],
        [
            "21069",
            "Suede",
            1
        ],
        [
            "21071",
            "Suede",
            1
        ],
        [
            "21074",
            "Suede",
            1
        ],
        [
            "21075",
            "Gloss",
            1
        ],
        [
            "21075",
            "Suede",
            1
        ],
        [
            "21077",
            "Suede",
            1
        ],
        [
            "21081",
            "Gloss",
            1
        ],
        [
            "21081",
            "Suede",
            1
        ],
        [
            "21082",
            "Suede",
            1
        ],
        [
            "21087",
            "Suede",
            1
        ],
        [
            "21089",
            "Suede",
            1
        ],
        [
            "21091",
            "Gloss",
            1
        ],
        [
            "21091",
            "Suede",
            1
        ],
        [
            "21092",
            "Suede",
            1
        ],
        [
            "21097",
            "Suede",
            1
        ],
        [
            "21099",
            "Suede",
            1
        ],
        [
            "21114",
            "Gloss",
            1
        ],
        [
            "21114",
            "Suede",
            1
        ],
        [
            "21117",
            "Suede",
            1
        ],
        [
            "21122",
            "Suede",
            1
        ],
        [
            "21127",
            "Gloss",
            1
        ],
        [
            "21127",
            "Suede",
            1
        ],
        [
            "21132",
            "Suede",
            1
        ],
        [
            "21141",
            "Suede",
            1
        ],
        [
            "21142",
            "Gloss",
            1
        ],
        [
            "21142",
            "Suede",
            1
        ],
        [
            "21143",
            "Gloss",
            1
        ],
        [
            "21143",
            "Suede",
            1
        ],
        [
            "21155",
            "Suede",
            1
        ],
        [
            "21161",
            "Suede",
            1
        ],
        [
            "21162",
            "Gloss",
            1
        ],
        [
            "21162",
            "Suede",
            1
        ],
        [
            "21163",
            "Gloss",
            1
        ],
        [
            "21163",
            "Suede",
            1
        ],
        [
            "21172",
            "Gloss",
            1
        ],
        [
            "21172",
            "Suede",
            1
        ],
        [
            "21187",
            "Gloss",
            1
        ],
        [
            "21187",
            "Suede",
            1
        ],
        [
            "21193",
            "Suede",
            1
        ],
        [
            "21307",
            "Suede",
            1
        ],
        [
            "21321",
            "Suede",
            1
        ],
        [
            "21341",
            "Suede",
            1
        ],
        [
            "21369",
            "Suede",
            1
        ],
        [
            "21387",
            "Suede",
            1
        ],
        [
            "21481",
            "Gloss",
            1
        ],
        [
            "21481",
            "Suede",
            1
        ],
        [
            "21581",
            "Suede",
            1
        ],
        [
            "21941",
            "Suede",
            1
        ],
        [
            "22017",
            "Gloss",
            1
        ],
        [
            "22017",
            "Suede",
            1
        ],
        [
            "22034",
            "Gloss",
            1
        ],
        [
            "22059",
            "Suede",
            1
        ],
        [
            "22062",
            "Gloss",
            1
        ],
        [
            "22062",
            "Suede",
            1
        ],
        [
            "22067",
            "Gloss",
            1
        ],
        [
            "22067",
            "Suede",
            1
        ],
        [
            "22074",
            "Suede",
            1
        ],
        [
            "22079",
            "Suede",
            1
        ],
        [
            "22084",
            "Suede",
            1
        ],
        [
            "22091",
            "Suede",
            1
        ],
        [
            "22099",
            "Gloss",
            1
        ],
        [
            "22099",
            "Suede",
            1
        ],
        [
            "22102",
            "Gloss",
            1
        ],
        [
            "22102",
            "Suede",
            1
        ],
        [
            "22105",
            "Gloss",
            1
        ],
        [
            "22105",
            "Suede",
            1
        ],
        [
            "22109",
            "Gloss",
            1
        ],
        [
            "22109",
            "Suede",
            1
        ],
        [
            "22112",
            "Gloss",
            1
        ],
        [
            "22112",
            "Suede",
            1
        ],
        [
            "22115",
            "Gloss",
            1
        ],
        [
            "22115",
            "Suede",
            1
        ],
        [
            "22119",
            "Gloss",
            1
        ],
        [
            "22119",
            "Suede",
            1
        ],
        [
            "22122",
            "Gloss",
            1
        ],
        [
            "22122",
            "Suede",
            1
        ],
        [
            "22127",
            "Gloss",
            1
        ],
        [
            "22127",
            "Suede",
            1
        ],
        [
            "22129",
            "Gloss",
            1
        ],
        [
            "22129",
            "Suede",
            1
        ],
        [
            "22134",
            "Gloss",
            1
        ],
        [
            "22134",
            "Suede",
            1
        ],
        [
            "22137",
            "Gloss",
            1
        ],
        [
            "22137",
            "Suede",
            1
        ],
        [
            "22142",
            "Suede",
            1
        ],
        [
            "22143",
            "Suede",
            1
        ],
        [
            "22157",
            "Suede",
            1
        ],
        [
            "22169",
            "Suede",
            1
        ],
        [
            "22172",
            "Gloss",
            1
        ],
        [
            "22172",
            "Suede",
            1
        ],
        [
            "22223",
            "Suede",
            1
        ],
        [
            "22293",
            "Suede",
            1
        ],
        [
            "24087",
            "Suede",
            1
        ],
        [
            "27106",
            "Suede",
            1
        ],
        [
            "27107",
            "Suede",
            1
        ],
        [
            "27108",
            "Suede",
            1
        ],
        [
            "27111",
            "Suede",
            1
        ],
        [
            "27112",
            "Suede",
            1
        ],
        [
            "27113",
            "Suede",
            1
        ],
        [
            "27121",
            "Suede",
            1
        ],
        [
            "27127",
            "Suede",
            1
        ],
        [
            "27131",
            "Suede",
            1
        ],
        [
            "27132",
            "Suede",
            1
        ],
        [
            "27135",
            "Suede",
            1
        ],
        [
            "27137",
            "Suede",
            1
        ],
        [
            "27139",
            "Suede",
            1
        ],
        [
            "27147",
            "Suede",
            1
        ],
        [
            "27151",
            "Suede",
            1
        ],
        [
            "27152",
            "Suede",
            1
        ],
        [
            "27155",
            "Suede",
            1
        ],
        [
            "27169",
            "Suede",
            1
        ],
        [
            "27172",
            "Suede",
            1
        ],
        [
            "27179",
            "Suede",
            1
        ],
        [
            "27181",
            "Suede",
            1
        ],
        [
            "27185",
            "Suede",
            1
        ],
        [
            "27189",
            "Suede",
            1
        ],
        [
            "27209",
            "Suede",
            1
        ],
        [
            "27G06",
            "Suede",
            1
        ],
        [
            "27K09",
            "Suede",
            1
        ],
        [
            "27K21",
            "Suede",
            1
        ],
        [
            "37301",
            "Suede",
            1
        ],
        [
            "37305",
            "Suede",
            1
        ],
        [
            "37307",
            "Suede",
            1
        ],
        [
            "37311",
            "Suede",
            1
        ],
        [
            "37312",
            "Suede",
            1
        ],
        [
            "37313",
            "Suede",
            1
        ],
        [
            "37903",
            "Suede",
            1
        ],
        [
            "40001",
            "Suede",
            1
        ],
        [
            "40002",
            "Suede",
            1
        ],
        [
            "40003",
            "Suede",
            1
        ],
        [
            "40004",
            "Suede",
            1
        ],
        [
            "40214",
            "Suede",
            1
        ],
        [
            "40232",
            "Gloss",
            1
        ],
        [
            "40232",
            "Suede",
            1
        ],
        [
            "40265",
            "Suede",
            1
        ],
        [
            "40266",
            "Suede",
            1
        ],
        [
            "40267",
            "Suede",
            1
        ],
        [
            "40268",
            "Gloss",
            1
        ],
        [
            "40294",
            "Gloss",
            1
        ],
        [
            "40474",
            "Suede",
            1
        ],
        [
            "40475",
            "Gloss",
            1
        ],
        [
            "40475",
            "Suede",
            1
        ],
        [
            "40478",
            "Gloss",
            1
        ],
        [
            "40478",
            "Suede",
            1
        ],
        [
            "40499",
            "Suede",
            1
        ],
        [
            "40756",
            "Suede",
            1
        ],
        [
            "44260",
            "Suede",
            1
        ],
        [
            "44279",
            "Suede",
            1
        ],
        [
            "44280",
            "Suede",
            1
        ],
        [
            "44281",
            "Suede",
            1
        ],
        [
            "44282",
            "Suede",
            1
        ],
        [
            "44503",
            "Gloss",
            1
        ],
        [
            "44503",
            "Suede",
            1
        ],
        [
            "44703",
            "Suede",
            1
        ],
        [
            "44704",
            "Suede",
            1
        ],
        [
            "44708",
            "Suede",
            1
        ],
        [
            "44722",
            "Gloss",
            1
        ],
        [
            "44722",
            "Suede",
            1
        ],
        [
            "44723",
            "Suede",
            1
        ],
        [
            "44752",
            "Suede",
            1
        ],
        [
            "44753",
            "Suede",
            1
        ],
        [
            "44754",
            "Suede",
            1
        ],
        [
            "44755",
            "Suede",
            1
        ],
        [
            "44757",
            "Suede",
            1
        ],
        [
            "44758",
            "Suede",
            1
        ],
        [
            "44759",
            "Suede",
            1
        ],
        [
            "44760",
            "Suede",
            1
        ],
        [
            "44761",
            "Suede",
            1
        ],
        [
            "44762",
            "Suede",
            1
        ],
        [
            "44773",
            "Gloss",
            1
        ],
        [
            "44773",
            "Suede",
            1
        ],
        [
            "44774",
            "Suede",
            1
        ],
        [
            "44775",
            "Suede",
            1
        ],
        [
            "44783",
            "Suede",
            1
        ],
        [
            "44784",
            "Suede",
            1
        ],
        [
            "44785",
            "Suede",
            1
        ],
        [
            "44789",
            "Gloss",
            1
        ],
        [
            "44789",
            "Suede",
            1
        ],
        [
            "44791",
            "Suede",
            1
        ],
        [
            "44793",
            "Gloss",
            1
        ],
        [
            "44793",
            "Suede",
            1
        ],
        [
            "49790",
            "Suede",
            1
        ],
        [
            "49907",
            "Gloss",
            1
        ],
        [
            "49907",
            "Suede",
            1
        ],
        [
            "49908",
            "Gloss",
            1
        ],
        [
            "49908",
            "Suede",
            1
        ],
        [
            "49909",
            "Gloss",
            1
        ],
        [
            "49909",
            "Suede",
            1
        ],
        [
            "49910",
            "Suede",
            1
        ],
        [
            "49912",
            "Suede",
            1
        ],
        [
            "49916",
            "Gloss",
            1
        ],
        [
            "49918",
            "Gloss",
            1
        ],
        [
            "49922",
            "Gloss",
            1
        ],
        [
            "49929",
            "Gloss",
            1
        ],
        [
            "49931",
            "Gloss",
            1
        ],
        [
            "49931",
            "Suede",
            1
        ],
        [
            "49938",
            "Gloss",
            1
        ],
        [
            "49939",
            "Gloss",
            1
        ],
        [
            "49944",
            "Gloss",
            1
        ],
        [
            "49944",
            "Suede",
            1
        ],
        [
            "49946",
            "Gloss",
            1
        ],
        [
            "49946",
            "Suede",
            1
        ],
        [
            "49947",
            "Gloss",
            1
        ],
        [
            "49948",
            "Gloss",
            1
        ],
        [
            "49949",
            "Gloss",
            1
        ],
        [
            "49951",
            "Suede",
            1
        ],
        [
            "49952",
            "Suede",
            1
        ],
        [
            "49953",
            "Suede",
            1
        ],
        [
            "49959",
            "Gloss",
            1
        ],
        [
            "49960",
            "Gloss",
            1
        ],
        [
            "49961",
            "Gloss",
            1
        ],
        [
            "49962",
            "Gloss",
            1
        ],
        [
            "D2129",
            "Gloss",
            1
        ],
        [
            "D3381",
            "Gloss",
            1
        ],
        [
            "F1007",
            "Suede",
            1
        ],
        [
            "G1066",
            "Gloss",
            1
        ],
        [
            "G1941",
            "Gloss",
            1
        ],
        [
            "K1066",
            "Gloss",
            1
        ],
        [
            "K1081",
            "Gloss",
            1
        ],
        [
            "K2099",
            "Gloss",
            1
        ]
    ]
}
