<svg xmlns="http://www.w3.org/2000/svg" width="26" height="17.333" viewBox="0 0 26 17.333">
  <path id="Path_88" data-name="Path 88" d="M4.444,23.333h5.778a1.444,1.444,0,1,0,0-2.889H4.444a1.444,1.444,0,0,0,0,2.889ZM3,7.444A1.449,1.449,0,0,0,4.444,8.889H27.556a1.444,1.444,0,1,0,0-2.889H4.444A1.449,1.449,0,0,0,3,7.444Zm1.444,8.667H18.889a1.444,1.444,0,0,0,0-2.889H4.444a1.444,1.444,0,0,0,0,2.889Z" transform="translate(-3 -6)" fill="#fff"/>
</svg>
