<svg id="share_black_24dp" xmlns="http://www.w3.org/2000/svg" width="28" height="28" viewBox="0 0 28 28">
  <path id="Path_45" data-name="Path 45" d="M0,0H28V28H0Z" fill="none"/>
  <path id="Path_46" data-name="Path 46" d="M19.25,17.706a3.106,3.106,0,0,0-2.123.859L9.4,13.935a3.754,3.754,0,0,0,.1-.781,3.754,3.754,0,0,0-.1-.781L17.04,7.789a3.187,3.187,0,0,0,2.21.9A3.3,3.3,0,0,0,22.5,5.346a3.251,3.251,0,1,0-6.5,0,3.754,3.754,0,0,0,.1.781L8.46,10.712a3.187,3.187,0,0,0-2.21-.9,3.348,3.348,0,0,0,0,6.693,3.187,3.187,0,0,0,2.21-.9l7.713,4.64a3.152,3.152,0,1,0,3.077-2.532Z" transform="translate(1.25 0.833)" fill="#fff"/>
</svg>
