<svg xmlns="http://www.w3.org/2000/svg" width="28" height="23.81" viewBox="0 0 28 23.81">
  <g id="After" transform="translate(-1.996 -2.999)" fill="#5f879d">
    <path d="M 16.01033020019531 25.80836296081543 C 15.55244064331055 25.80836296081543 15.11717987060547 25.64578247070312 14.78472995758057 25.35058212280273 L 14.78233051300049 25.34845161437988 L 14.77990055084229 25.34632301330566 L 14.62596988677979 25.21140289306641 C 11.05893039703369 22.10001182556152 7.9798903465271 19.41429138183594 5.927630424499512 16.96176147460938 C 3.827210426330566 14.45168209075928 2.924550294876099 12.35353183746338 3.000830411911011 10.15867233276367 C 3.073290348052979 8.179272651672363 4.155440330505371 6.267752170562744 5.824910163879395 5.17191219329834 C 6.986220359802246 4.408562183380127 8.325070381164551 4.005252361297607 9.697270393371582 4.005252361297607 C 11.79765033721924 4.005252361297607 13.87255001068115 4.931622505187988 15.24763011932373 6.483272075653076 L 15.99604034423828 7.327782154083252 L 16.74444961547852 6.483272075653076 C 18.12281036376953 4.92791223526001 20.1986198425293 3.999342203140259 22.2972297668457 3.999342203140259 C 23.66841125488281 3.999342203140259 25.00568962097168 4.404202461242676 26.16451072692871 5.170152187347412 C 27.83665084838867 6.267752170562744 28.91880035400391 8.179272651672363 28.99133110046387 10.1605224609375 C 29.07311058044434 12.3455924987793 28.17914009094238 14.43545246124268 26.09272956848145 16.93757247924805 C 24.06073951721191 19.37442207336426 20.99765968322754 22.05744171142578 17.4509105682373 25.16411209106445 L 17.36635971069336 25.23817253112793 L 17.22993087768555 25.35654258728027 C 16.89590072631836 25.64890289306641 16.46392059326172 25.80836296081543 16.01033020019531 25.80836296081543 Z" stroke="none"/>
    <path d="M 16.01033020019531 24.80836296081543 C 16.22155952453613 24.80836296081543 16.41963958740234 24.73681259155273 16.56806945800781 24.60689163208008 L 16.79201126098633 24.4118824005127 C 20.30713081359863 21.33291244506836 23.3429012298584 18.67381286621094 25.32471084594727 16.29715156555176 C 27.24125099182129 13.99874210357666 28.06389045715332 12.11793231964111 27.99200057983398 10.19710254669189 C 27.93112945556641 8.534162521362305 27.02163124084473 6.928962230682373 25.61843109130859 6.007902145385742 L 25.61310005187988 6.004392147064209 C 24.60414123535156 5.3374924659729 23.4885196685791 4.999342441558838 22.2972297668457 4.999342441558838 C 20.48038101196289 4.999342441558838 18.68435096740723 5.802022457122803 17.49285125732422 7.146512508392334 L 15.99604034423828 8.835532188415527 L 14.49923038482666 7.146512508392334 C 13.31101989746094 5.805722236633301 11.51589012145996 5.005252361297607 9.697270393371582 5.005252361297607 C 8.504030227661133 5.005252361297607 7.386170387268066 5.342352390289307 6.373660087585449 6.007902145385742 C 4.970460414886475 6.928962230682373 4.060960292816162 8.534162521362305 4.00022029876709 10.1934118270874 C 3.933140277862549 12.1235523223877 4.764100551605225 14.01306247711182 6.694540500640869 16.32001304626465 C 8.69640064239502 18.71231269836426 11.74802017211914 21.37411308288574 15.28512001037598 24.45939254760742 L 15.44869995117188 24.60282135009766 C 15.5979700088501 24.7353630065918 15.79743003845215 24.80836296081543 16.01033020019531 24.80836296081543 M 16.01033020019531 26.8083610534668 C 15.33261775970459 26.8083610534668 14.65450763702393 26.57228660583496 14.12075996398926 26.09834289550781 L 13.96683025360107 25.96342277526855 C 6.619650363922119 19.55477142333984 1.819500327110291 15.35880184173584 2.00143027305603 10.12394237518311 C 2.085390329360962 7.830322265625 3.302930355072021 5.631152153015137 5.276170253753662 4.335922241210938 C 8.970749855041504 1.907382607460022 13.53299140930176 3.040701866149902 15.99604034423828 5.820032119750977 C 18.4591007232666 3.04070258140564 23.02135467529297 1.893892407417297 26.71591949462891 4.335922241210938 C 28.68915939331055 5.631152153015137 29.90670013427734 7.830322265625 29.99065971374512 10.12394237518311 C 30.18659019470215 15.35880184173584 25.37244033813477 19.55477142333984 18.02526092529297 25.99040222167969 L 17.88532066345215 26.11183166503906 C 17.35547256469727 26.57559776306152 16.68309593200684 26.8083610534668 16.01033020019531 26.8083610534668 Z" stroke="none" fill="#fff"/>
  </g>
</svg>
