{
    "actions": {
        "_chain_together": true,
        "patch": [
            {
                "_act_if": "{made_enquiry} == True",
                "_action": "call",
                "_name": "sync_crm",
                "headers": {
                    "Content-Type": "application/json",
                    "Token": "QAEl6l7zEAEVWzcI/6YA5w=="
                },
                "method": "POST",
                "url": "https://exportcrm.merinoindia.com/WebQuery/api/WebQuery/SaveWebQuery",
                "url_params": {
                    "City": "{city}",
                    "Country": "{country}",
                    "Email": "{email}",
                    "Mobile": "{phone_number}",
                    "Name": "{name}",
                    "QueryType": "Digital Folder",
                    "Remarks": "{notes}",
                    "State": "{state}",
                    "SubmitTime": "{updated}",
                    "Zone": "{region}",
                    "utm_campaign": "{utm_campaign}",
                    "utm_medium": "{utm_medium}",
                    "utm_source": "{utm_source}"
                }
            },
            {
                "_act_if": "{made_enquiry} == True",
                "_action": "update",
                "_ids": "{customer_id}",
                "_instance": {
                    "enquiry_message": "{sync_crm}"
                },
                "_model": "customer"
            },
            {
                "_act_if": "{made_enquiry} == True",
                "_action": "update_many",
                "_instance": {
                    "city": null,
                    "state": null,
                    "utm_campaign": null,
                    "utm_medium": null,
                    "utm_source": null
                },
                "_model": "interaction",
                "_name": "sync_interactions",
                "customer_id": "{customer_id}"
            }
        ]
    },
    "allow_anonymous_view": false,
    "attached_matchers": [
        "user_matcher",
        "user_aggr_matcher",
        "user_interact_matcher"
    ],
    "attributes": [
        {
            "indexed": true,
            "name": "name",
            "required": true
        },
        {
            "name": "email",
            "required": true,
            "type": "email"
        },
        {
            "name": "phone_number",
            "type": "mobile_number"
        },
        {
            "indexed": true,
            "name": "state",
            "type": "state"
        },
        {
            "indexed": true,
            "name": "city",
            "type": "city"
        },
        {
            "default": {
                "args": [
                    "state",
                    "North"
                ],
                "function": "attribute_mapper",
                "kwargs": {
                    "Andaman and Nicobar Island": "South",
                    "Andhra Pradesh": "South",
                    "Arunachal Pradesh": "East",
                    "Assam": "East",
                    "Bihar": "North",
                    "Chandigarh (UT)": "North",
                    "Chhattisgarh": "East",
                    "Dadra and Nagar Haveli & Daman and Diu": "West",
                    "Delhi": "North",
                    "Goa": "West",
                    "Gujarat": "West",
                    "Haryana": "North",
                    "Himachal Pradesh": "North",
                    "Jammu and Kashmir": "North",
                    "Jharkhand": "East",
                    "Karnataka": "South",
                    "Kerala": "South",
                    "Ladakh": "North",
                    "Lakshadweep": "South",
                    "Madhya Pradesh": "North",
                    "Maharashtra": "West",
                    "Manipur": "East",
                    "Meghalaya": "East",
                    "Mizoram": "East",
                    "Nagaland": "East",
                    "Odisha": "East",
                    "Puducherry": "South",
                    "Punjab": "North",
                    "Rajasthan": "West",
                    "Sikkim": "East",
                    "Tamil Nadu": "South",
                    "Telangana": "South",
                    "Tripura": "East",
                    "Uttar Pradesh": "North",
                    "Uttarakhand": "North",
                    "West Bengal": "East"
                }
            },
            "name": "region",
            "options": [
                "North",
                "South",
                "East",
                "West"
            ],
            "type": "zone"
        },
        {
            "default": "India",
            "name": "country",
            "type": "country"
        },
        {
            "auto_updater": true,
            "default": {
                "args": [
                    "interaction",
                    "interaction_id",
                    "count"
                ],
                "function": "pivot_from_child",
                "kwargs": {
                    "stage": "viewed"
                }
            },
            "name": "view",
            "type": "number"
        },
        {
            "auto_updater": true,
            "default": {
                "args": [
                    "interaction",
                    "interaction_id",
                    "count"
                ],
                "function": "pivot_from_child",
                "kwargs": {
                    "_fresh": true,
                    "stage": "shortlisted"
                }
            },
            "name": "shortlist",
            "type": "number"
        },
        {
            "default": 0,
            "indexed": false,
            "name": "share",
            "type": "number"
        },
        {
            "default": 0,
            "indexed": false,
            "name": "download",
            "type": "number"
        },
        {
            "auto_updater": true,
            "default": {
                "function": "now"
            },
            "name": "created",
            "type": "timestamp"
        },
        {
            "auto_updater": true,
            "default": {
                "function": "now"
            },
            "force_update": true,
            "name": "updated",
            "type": "timestamp"
        },
        {
            "auto_updater": true,
            "default": {
                "args": [
                    "updated",
                    "created"
                ],
                "function": "time_diff",
                "kwargs": {
                    "units": "minutes"
                }
            },
            "force_update": true,
            "name": "duration",
            "type": "number"
        },
        {
            "name": "notes",
            "type": "description"
        },
        {
            "default": false,
            "name": "made_enquiry",
            "type": "bool"
        },
        {
            "default": {
                "args": [
                    "name",
                    "created"
                ],
                "function": "make_uuid3"
            },
            "id": true,
            "name": "customer_id",
            "type": "uid"
        },
        {
            "indexed": true,
            "name": "utm_source",
            "type": "category"
        },
        {
            "indexed": true,
            "name": "utm_medium",
            "type": "category"
        },
        {
            "indexed": true,
            "name": "utm_campaign",
            "type": "category"
        },
        {
            "indexed": true,
            "name": "utm_term",
            "type": "category"
        },
        {
            "indexed": true,
            "name": "utm_term",
            "type": "category"
        },
        {
            "default": {
                "function": "make_view_id",
                "kwargs": {
                    "make_unique": false
                }
            },
            "name": "password",
            "type": "password"
        },
        {
            "default": true,
            "name": "validated",
            "type": "bool"
        },
        {
            "auto_updater": true,
            "default": {
                "args": [
                    "wishlist",
                    "wishlist_id",
                    "count"
                ],
                "function": "pivot_from_child",
                "kwargs": {
                    "_fresh": true
                }
            },
            "name": "wishlist_count",
            "type": "number"
        },
        {
            "auto_updater": true,
            "default": {
                "args": [
                    "shortlist",
                    "wishlist_count"
                ],
                "function": "sum_attributes"
            },
            "force_update": [
                "shortlist",
                "wishlist_count"
            ],
            "name": "wishlist_total_count",
            "type": "number"
        },
        {
            "default": false,
            "indexed": true,
            "name": "needs_validation",
            "type": "bool"
        },
        {
            "default": {
                "args": [
                    true,
                    false
                ],
                "function": "set_if_condition",
                "kwargs": {
                    "email": "merinoindia.com^"
                }
            },
            "indexed": true,
            "name": "validated_for_merinolens",
            "type": "bool"
        },
        {
            "default": false,
            "indexed": true,
            "name": "rejected_for_merinolens",
            "type": "bool"
        }
    ],
    "expand_attributes": true,
    "has_login": true,
    "model_type": "customer",
    "parents": [],
    "permissions": [
        {
            "delete_access": false,
            "read_access": false,
            "role": "customer",
            "write_access": false
        }
    ],
    "timezone": "Asia/Kolkata"
}
