[
    {
        "customer_attributes": [],
        "customer_model": "customer",
        "default_positivity_score": -0.5,
        "display": true,
        "edit_discount_attributes": [],
        "edit_price_attributes": [],
        "edit_quantity_attributes": [],
        "edit_tax_attributes": [],
        "edit_total_attributes": {},
        "experienced_product": false,
        "interaction_time_attribute": "updated",
        "name": "rejected",
        "next_stage": "shortlisted",
        "order_checkout_name": "Order Checkout",
        "previous_stage": "__NULL__",
        "print_button_name": "Print",
        "product_attributes": [],
        "product_model": "product",
        "share_button_name": "__NULL__",
        "share_button_template": "catalog_mail_template.html",
        "time_period": "yearly"
    },
    {
        "customer_attributes": [],
        "customer_model": "customer",
        "default_positivity_score": 0.1,
        "display": true,
        "edit_discount_attributes": [],
        "edit_price_attributes": [],
        "edit_quantity_attributes": [],
        "edit_tax_attributes": [],
        "edit_total_attributes": {},
        "experienced_product": false,
        "interaction_time_attribute": "updated",
        "name": "viewed",
        "new_interaction_attributes": [],
        "next_stage": "shortlisted",
        "order_checkout_name": "Order Checkout",
        "previous_stage": "rejected",
        "print_button_name": "Print",
        "product_attributes": [],
        "product_model": "product",
        "share_button_name": "__NULL__",
        "share_button_template": "catalog_mail_template.html"
    },
    {
        "customer_attributes": [],
        "customer_model": "customer",
        "default_positivity_score": 0.5,
        "display": true,
        "edit_discount_attributes": [],
        "edit_price_attributes": [],
        "edit_quantity_attributes": [],
        "edit_tax_attributes": [],
        "edit_total_attributes": {},
        "experienced_product": false,
        "interaction_time_attribute": "updated",
        "name": "shortlisted",
        "new_interaction_attributes": [],
        "next_stage": "shared",
        "order_checkout_name": "Order Checkout",
        "previous_stage": "rejected",
        "print_button_name": "Print",
        "product_attributes": [],
        "product_model": "product",
        "share_button_name": "__NULL__",
        "share_button_template": "catalog_mail_template.html"
    },
    {
        "customer_attributes": [],
        "customer_model": "customer",
        "default_positivity_score": 0.7,
        "display": true,
        "edit_discount_attributes": [],
        "edit_price_attributes": [],
        "edit_quantity_attributes": [],
        "edit_tax_attributes": [],
        "edit_total_attributes": {},
        "experienced_product": false,
        "interaction_time_attribute": "updated",
        "name": "shared",
        "new_interaction_attributes": [],
        "next_stage": "downloaded",
        "order_checkout_name": "Order Checkout",
        "previous_stage": "shortlisted",
        "print_button_name": "Print",
        "product_attributes": [],
        "product_model": "product",
        "share_button_name": "Share",
        "share_button_template": "catalog_mail_template.html"
    },
    {
        "customer_attributes": [],
        "customer_model": "customer",
        "default_positivity_score": 0.8,
        "display": true,
        "edit_discount_attributes": [],
        "edit_price_attributes": [],
        "edit_quantity_attributes": [],
        "edit_tax_attributes": [],
        "edit_total_attributes": {},
        "experienced_product": false,
        "interaction_time_attribute": "updated",
        "name": "downloaded",
        "new_interaction_attributes": [],
        "next_stage": "__NULL__",
        "order_checkout_name": "Order Checkout",
        "previous_stage": "shortlisted",
        "print_button_name": "Print",
        "product_attributes": [],
        "product_model": "product",
        "share_button_name": "__NULL__",
        "share_button_template": "catalog_mail_template.html"
    },
    {
        "customer_attributes": [],
        "customer_model": "customer",
        "default_positivity_score": 1,
        "display": true,
        "edit_discount_attributes": [],
        "edit_price_attributes": [],
        "edit_quantity_attributes": [],
        "edit_tax_attributes": [],
        "edit_total_attributes": {},
        "experienced_product": true,
        "interaction_time_attribute": "updated",
        "name": "reviewed",
        "new_interaction_attributes": [],
        "next_stage": "__NULL__",
        "order_checkout_name": "Order Checkout",
        "previous_stage": "shortlisted",
        "print_button_name": "Print",
        "product_attributes": [],
        "product_model": "product",
        "share_button_name": "__NULL__",
        "share_button_template": "catalog_mail_template.html"
    }
]
